
+++++++++++++++++++++++++++++++++++++++++++++++++++++++++++
//Get All Releases
Method: GET
url: http://localhost:5000/releases
++++++++++++++++++++++++++++++++++++++++++++++++++++++++++++



+++++++++++++++++++++++++++++++++++++++++++++++++++++++++++
//Get All ReleasesMileStones
Method: GET
url: localhost:5000/releases/mileStones
++++++++++++++++++++++++++++++++++++++++++++++++++++++++++++



+++++++++++++++++++++++++++++++++++++++++++++++++++++++++++
//Get MileStone for specific release
Method: GET
url : localhost:5000/testResults/byRelease/2020.03.15.CR

++++++++++++++++++++++++++++++++++++++++++++++++++++++++++++




